<?xml version="1.0" encoding="utf-8"?>
<!-- Generator: Adobe Illustrator 21.0.0, SVG Export Plug-In . SVG Version: 6.00 Build 0)  -->
<svg version="1.1" id="Logo" xmlns="http://www.w3.org/2000/svg" xmlns:xlink="http://www.w3.org/1999/xlink" x="0px" y="0px"
	 viewBox="0 0 614.8 255" style="enable-background:new 0 0 614.8 255;" xml:space="preserve">
<style type="text/css">
	.st0{fill:#F1EDA0;}
</style>
<g>
	<g>
		<polygon class="st0" points="96.9,182.9 52.9,199.7 79.9,199.5 97.1,197.1 		"/>
		<polygon class="st0" points="84.9,182.5 41.5,182 10.5,177.1 32,198.2 10,218.6 34.5,223.5 43.4,223.6 42.9,203.5 47.5,196.9 		
			"/>
	</g>
	<g>
		<polygon class="st0" points="257.7,241 303.4,223.5 265.9,225 257.6,226.8 		"/>
		<polygon class="st0" points="269.7,241.4 313.1,241.8 344.1,246.8 322.6,225.7 344.6,205.3 320.1,200.4 311.2,200.3 311.7,220.4 
			307.1,227 		"/>
	</g>
	<g>
		<path class="st0" d="M247.2,194.8c-0.1,0.4-2.1,6.9-2.7,8.7c1.8-0.2,3.6-0.5,5.4-0.7C249.4,201.1,247.4,195.1,247.2,194.8
			C247.2,194.8,247.2,194.8,247.2,194.8z"/>
		<path class="st0" d="M305.7,213.3l-0.3-36.6l-6.8-4l-11,0.2l-31.1,2.3l-65.1,10.1l-55.8,12.6l-59.8,7.2l-27.9-0.5l0.1,38.8
			l7.4,5.9l27.9,0.5l59.8-7.2l55.8-12.6l65.7-9.5l41.2-1.8L305.7,213.3z M90.4,218.5c-4.2,0.3-8.3,0.6-12.4,0.8c0,1.4,0,2.8,0,4.3
			c3.4-0.2,6.9-0.4,10.3-0.6c0,2,0,3.9,0,5.9c-3.4,0.3-6.9,0.5-10.3,0.7c0,3.1,0,6.3,0,9.4c-2.5,0.1-5.1,0.2-7.6,0.3
			c0-8.7,0-17.4,0-26.1c6.6-0.1,13.3-0.5,20-1C90.4,214.3,90.4,216.4,90.4,218.5z M99,237.2c0-8.6,0-17.2,0-25.8
			c6.8-0.7,13.6-1.5,20.4-2.5c0,2,0,4.1,0,6.1c-4.3,0.6-8.5,1.2-12.8,1.7c0,1.2,0,2.3,0,3.5c3.6-0.4,7.1-0.9,10.7-1.4
			c0,1.9,0,3.8,0,5.6c-3.6,0.5-7.1,1-10.7,1.4c0,1.3,0,2.7,0,4c4.4-0.5,8.8-1.1,13.2-1.8c0,2.1,0,4.3,0,6.4
			C112.9,235.5,106,236.4,99,237.2z M150.6,225l-6.1,5.4l-9.2,1.6l-6.4-3.3l-1-3.7l7.9-1.3l1.4,2l4.3-0.1l1.9-1.3l0.3-1l-0.3-0.9
			l-13.6-4l-0.9-3.3l0.9-3.9l5.8-4.9l8.1-1.4l5.8,2.8l0.9,3.4l-7.7,1.4l-1-1.5l-4.5,0.6l-0.8,1.4l0.4,0.9l13.9,4L150.6,225z
			 M173,224.9c-2.6,0.5-5.2,1-7.8,1.5c0-6.4,0-12.7,0-19.1c-2.5,0.5-5,1-7.5,1.4c0-2.1,0-4.2,0-6.3c7.6-1.4,15.2-2.9,22.8-4.4
			c0,2.1,0,4.2,0,6.3c-2.5,0.5-5.1,1-7.6,1.5C173,212.2,173,218.5,173,224.9z M189.2,221.7c0-8.5,0-16.9-0.1-25.4
			c2.6-0.5,5.2-1,7.8-1.5c0,8.5,0,16.9,0.1,25.4C194.4,220.7,191.8,221.2,189.2,221.7z M222.1,215.7c-2.9,0.5-5.8,1-8.7,1.5
			c-2.8-8-5.7-16-8.5-23.9c2.7-0.5,5.3-1,8-1.5c1.2,3.8,4.8,15.5,5,16c0,0,0,0,0.1,0c0.1-0.6,3.6-13.6,4.8-17.8
			c2.6-0.4,5.2-0.9,7.8-1.3C227.7,197.8,224.9,206.7,222.1,215.7z M252.9,211.3c-0.4-1.2-0.9-2.4-1.3-3.6c-3,0.3-5.9,0.7-8.9,1.1
			c-0.4,1.3-0.9,2.6-1.3,3.9c-2.5,0.3-5.1,0.7-7.7,1.1c3.2-9,6.5-18,9.7-27c2.6-0.4,5.2-0.7,7.8-1c3.2,8.2,6.5,16.4,9.7,24.7
			C258.3,210.7,255.6,211,252.9,211.3z M287.6,209c-6.2,0.1-12.4,0.4-18.7,0.9c0-8.6,0-17.2,0-25.9c2.5-0.2,5.1-0.4,7.6-0.6
			c0,6.5,0,13,0,19.4c3.7-0.2,7.4-0.3,11.1-0.4C287.6,204.6,287.6,206.8,287.6,209z"/>
	</g>
</g>
<g>
	<polygon class="st0" points="89.5,137.3 88.8,164.2 111.9,162.5 121.2,100.4 120.6,93.1 114.8,77.4 85.2,76.8 75.7,93.9 91.8,96.5 
		78.3,110.4 36.2,148.9 33.3,145.6 44.7,113.7 61.6,83.8 116,22 109.7,5.2 92.7,6.6 63,33.1 33.7,64.5 4.3,140.2 8.6,157 
		39.7,166.5 61.3,163.3 	"/>
	<path class="st0" d="M594.2,43.6l-15.7-27.7l-5-4.3l-0.9,0l-4.9,3l-7.4,22.7l12.8,18.4l2.3,3.8l-0.8,1.5l-4.1,4.1
		c0-0.1,0-0.1,0-0.2l-16.3,16.4L538.4,123l-3.2,7l-11,5.1l-5.4-6l0,0l10.1-19.1l13.2-25.5l6.8-49.1l-16.5-17.4l-10-2l-5,6.9
		L504.9,89l-8,35.5l-1.9,1.5l-24.4,12L460,125.7l37.7-33.1l-15-21l-32.1,10l-8,41.1l-17.9,15.2l4.8-19.7l6.3-21.3l2.2-15.8l-8.3-3.9
		l-9-0.5l-7.6,17.7l-6.5,27.7l-21.7,9.5l4.4-43.3l4.6-21.6l1.9,26l4.7,1.3l4.3-8.6l-5.1-63.1l-15.1-8.5l-12,19.2l-9.5,84.4
		l-16.5,19.3l3.3-26.4l-0.4-16.6l-7.2-10.2l-3.6-1.8l-10.4,13l-12.6,21l-3.8,5.3l-1.1-1.5l7.8-25.9l-13.8-17.8l-9.3,13.5L293,104
		l-2.2,17.9l-7.4,5.5l-24.4,12l-10.9-12.8l37.1-22.7l-14.1-31.1l-25.5,11.9l-18.1,36.6l-1.9,1.5L199,137.2l-12.5-13.4l44.9-26.6
		l-18.2-28.8l-25.5,13.9l-10.3,14.8l-3.7-14.6L160.2,84l-7.8,13.7H152l4.2-24.4l-12.5-7.7l-7.5,0.1l-5.7,11.4l-5.6,84.5l20.5-1.4
		l3.3-26.6l1.6-7.6l10.7-13.6l9.5-2.2l1.6-0.7l-3.1,16.4l4.2,22.7l19.8,9.2l17.8-8.4l1.6-0.9l0,0l0.2-0.1l15.2-9.3l0.8,6.7
		l22.2,16.9l18-8.3l21-15.3l4.8,16.7l9.4,3.9l21.8-34.9l1.1,2.6l-1.1,18.8l10.5,16.5l24.2-20.7l-3.8,66.4l7.8,9l20.3-11.9l-3.7-19.7
		L382,152l23.6-9.1l12,20l21.5-18.8l22.9,17l18-8.3l18-14.3l1.1,8.6l12.4,15.8l29.1-19.7l2.3,4.5l12.9,9c0,0,0-0.1,0-0.1l6,4.2
		l15.4-7.5l32.3-60.1L594.2,43.6z M526,77.3l4.9-35.9l4.3,1.2l2.5,9.9l-3.7,26L521.2,111L526,77.3z M470.6,91.1l5.6,9.4l-13.5,10.1
		l-1.5-0.8L470.6,91.1z M260.2,92.5l5.6,9.4l-16.2,10.5L260.2,92.5z M202.3,88l5.6,9.4l-16.9,10.5L202.3,88z M567.5,138.3l-7.5-8.3
		l17.7-40.6l5.6-6.4l1.1-0.8l1.9,13.5L567.5,138.3z"/>
</g>
<polygon class="st0" points="435.5,65.7 444,56.8 443.1,44.6 431.9,38.4 422.7,63.4 426.5,65.5 "/>
</svg>
